{
    "type": "minecraft:crafting_shapeless",
    "ingredients": [
        {
            "item": "villagerdrop:bag_of_broccoli"
        },
        {
	        "item": "minecraft:baked_potato"
        }
    ],
    "result": {
        "item": "villagerdrop:bag_of_broccoli_chips"
    }
}